{
  "info": {
    "page": 1,
    "per_page": "5",
    "total": 2415,
    "total_pages": 483,
    "count": 5,
    "next_page_url": "https://data.oddalerts.com/api/competitions?api_token=NdJExcbSqWOBzGpHAdedot2iuZ9pScrhdA8G4WkQY2MEphpPq87ua0pui8nV&page=2&per_page=5"
  },
  "data": [
    {
      "id": 2,
      "name": "Liga MX",
      "slug": "liga-mx",
      "country": "Mexico",
      "country_id": 43,
      "type": "League",
      "current_season": 2244346
    },
    {
      "id": 3,
      "name": "Premier League",
      "slug": "premier-league",
      "country": "Mongolia",
      "country_id": 222,
      "type": "League",
      "current_season": 1035445
    },
    {
      "id": 8,
      "name": "Super League",
      "slug": "super-league",
      "country": "China",
      "country_id": 122,
      "type": "League",
      "current_season": 1036089
    },
    {
      "id": 10,
      "name": "Liga 1",
      "slug": "liga-1",
      "country": "Indonesia",
      "country_id": 179,
      "type": "League",
      "current_season": 2264041
    },
    {
      "id": 11,
      "name": "Premier League",
      "slug": "premier-league",
      "country": "Singapore",
      "country_id": 198,
      "type": "League",
      "current_season": 2263981
    }
  ]
}